Biology 304: Biological Data Analysis
…
The function read_csv does exactly what it advertises – reads a data set from a CSV file and returns it as an object we can compute on. In this case we assigned the variable name titanic to our data set. Simple enough!

2.5 What’s in the data?

The function read_csv returns a table, where the columns represent the variables of interest (e.g. sex, age, etc) and the rows represent individuals or observations. Let’s take a look:

titanic
#> # A tibble: 1,309 x 14
#>    pclass survived name  sex       age sibsp parch ticket   fare cabin
#>     <int>    <int> <chr> <chr>   <dbl> <int> <int> <chr>   <dbl> <chr>
#>  1      1        1 Alle… fema… 29          0     0 24160  211.3  B5   
#>  2      1        1 Alli… male   0.9167     1     2 113781 151.6  C22 …
#>  3      1        0 Alli… fema…  2          1     2 113781 151.6  C22 …
#>  4      1        0 Alli… male  30          1     2 113781 151.6  C22 …
#>  5      1        0 Alli… fema… 25          1     2 113781 151.6  C22 …
#>  6      1        1 Ande… male  48          0     0 19952   26.55 E12  
#>  7      1        1 Andr… fema… 63          1     0 13502   77.96 D7   
#>  8      1        0 Andr… male  39          0     0 112050   0    A36  
#>  9      1        1 Appl… fema… 53          2     0 11769   51.48 C101 
#> 10      1        0 Arta… male  71          0     0 PC 17…  49.50 <NA> 
#> # ... with 1,299 more rows, and 4 more variables: embarked <chr>,
#> #   boat <chr>, body <int>, home.dest <chr>
…
